simulation/qsim/Lab4.msim.vcd
$comment
	File created using the following command:
		vcd file Lab4.msim.vcd -direction
$end
$date
	Wed Apr 28 17:44:42 2021
$end
$version
	ModelSim Version 2020.1
$end
$timescale
	1ps
$end

$scope module Tenbitcounter_vlg_vec_tst $end
$var reg 1 ! En $end
$var reg 1 " Mr $end
$var reg 1 # clock50 $end
$var reg 1 $ load_en $end
$var reg 10 % load_value [9:0] $end
$var wire 1 & Qout [9] $end
$var wire 1 ' Qout [8] $end
$var wire 1 ( Qout [7] $end
$var wire 1 ) Qout [6] $end
$var wire 1 * Qout [5] $end
$var wire 1 + Qout [4] $end
$var wire 1 , Qout [3] $end
$var wire 1 - Qout [2] $end
$var wire 1 . Qout [1] $end
$var wire 1 / Qout [0] $end
$var wire 1 0 Tc $end

$scope module i1 $end
$var wire 1 1 gnd $end
$var wire 1 2 vcc $end
$var wire 1 3 unknown $end
$var tri1 1 4 devclrn $end
$var tri1 1 5 devpor $end
$var tri1 1 6 devoe $end
$var wire 1 7 Qout[0]~output_o $end
$var wire 1 8 Qout[1]~output_o $end
$var wire 1 9 Qout[2]~output_o $end
$var wire 1 : Qout[3]~output_o $end
$var wire 1 ; Qout[4]~output_o $end
$var wire 1 < Qout[5]~output_o $end
$var wire 1 = Qout[6]~output_o $end
$var wire 1 > Qout[7]~output_o $end
$var wire 1 ? Qout[8]~output_o $end
$var wire 1 @ Qout[9]~output_o $end
$var wire 1 A Tc~output_o $end
$var wire 1 B clock50~input_o $end
$var wire 1 C Add0~1_sumout $end
$var wire 1 D load_value[0]~input_o $end
$var wire 1 E Mr~input_o $end
$var wire 1 F load_en~input_o $end
$var wire 1 G Add0~2 $end
$var wire 1 H Add0~5_sumout $end
$var wire 1 I load_value[1]~input_o $end
$var wire 1 J En~input_o $end
$var wire 1 K counter[0]~1_combout $end
$var wire 1 L Add0~6 $end
$var wire 1 M Add0~9_sumout $end
$var wire 1 N load_value[2]~input_o $end
$var wire 1 O Add0~10 $end
$var wire 1 P Add0~13_sumout $end
$var wire 1 Q load_value[3]~input_o $end
$var wire 1 R Add0~14 $end
$var wire 1 S Add0~17_sumout $end
$var wire 1 T load_value[4]~input_o $end
$var wire 1 U Add0~18 $end
$var wire 1 V Add0~21_sumout $end
$var wire 1 W load_value[5]~input_o $end
$var wire 1 X Equal0~0_combout $end
$var wire 1 Y Add0~22 $end
$var wire 1 Z Add0~25_sumout $end
$var wire 1 [ load_value[6]~input_o $end
$var wire 1 \ Add0~26 $end
$var wire 1 ] Add0~29_sumout $end
$var wire 1 ^ load_value[7]~input_o $end
$var wire 1 _ Add0~30 $end
$var wire 1 ` Add0~33_sumout $end
$var wire 1 a load_value[8]~input_o $end
$var wire 1 b Add0~34 $end
$var wire 1 c Add0~37_sumout $end
$var wire 1 d load_value[9]~input_o $end
$var wire 1 e Equal0~1_combout $end
$var wire 1 f counter[0]~0_combout $end
$var wire 1 g counter_finished~0_combout $end
$var wire 1 h counter_finished~1_combout $end
$var wire 1 i counter_finished~2_combout $end
$var wire 1 j counter_finished~3_combout $end
$var wire 1 k counter_finished~q $end
$var wire 1 l counter [9] $end
$var wire 1 m counter [8] $end
$var wire 1 n counter [7] $end
$var wire 1 o counter [6] $end
$var wire 1 p counter [5] $end
$var wire 1 q counter [4] $end
$var wire 1 r counter [3] $end
$var wire 1 s counter [2] $end
$var wire 1 t counter [1] $end
$var wire 1 u counter [0] $end
$upscope $end
$upscope $end
$enddefinitions $end
#0
$dumpvars
1!
0"
0#
0$
b0 %
0/
0.
0-
0,
0+
0*
0)
0(
0'
0&
00
01
12
x3
14
15
16
07
08
09
0:
0;
0<
0=
0>
0?
0@
0A
0B
1C
0D
0E
0F
0G
0H
0I
1J
1K
0L
0M
0N
0O
0P
0Q
0R
0S
0T
0U
0V
0W
0X
0Y
0Z
0[
0\
0]
0^
0_
0`
0a
0b
0c
0d
0e
0f
1g
1h
1i
0j
0k
0u
0t
0s
0r
0q
0p
0o
0n
0m
0l
$end
#1000
1#
1B
1u
17
0h
1G
1/
0C
1H
#2000
0#
0B
#3000
1#
1B
0u
1t
18
07
1L
0G
0/
1.
0H
1C
0L
1M
1H
0M
#4000
0#
0B
#5000
1#
1B
1u
17
1G
1/
0C
1L
0H
1M
#6000
0#
0B
#7000
1#
1B
0u
1s
0t
08
19
07
0L
1O
0G
0/
1-
0.
1H
0M
1C
0O
1M
1P
0H
0P
#8000
0#
0B
#9000
1#
1B
1u
17
1G
1/
0C
1H
#10000
0#
0B
#11000
1#
1B
0u
1t
18
07
1L
0G
0/
1.
0H
1C
1O
0L
0M
1H
0O
1P
1M
0P
#12000
0#
0B
#13000
1#
1B
1u
17
1G
1/
0C
1L
0H
1O
0M
1P
#14000
0#
0B
#15000
1#
1B
0u
1r
0s
0t
08
09
1:
07
0L
0O
1R
0G
0/
1,
0-
0.
1H
1M
0P
1C
0R
0M
1P
1S
0H
0S
#16000
0#
0B
#17000
1#
1B
1u
17
1G
1/
0C
1H
#18000
0#
0B
#19000
1#
1B
0u
1t
18
07
1L
0G
0/
1.
0H
1C
0L
1M
1H
0M
#20000
0#
0B
#21000
1#
1B
1u
17
1G
1/
0C
1L
0H
1M
#22000
0#
0B
#23000
1#
1B
0u
1s
0t
08
19
07
0L
1O
0G
0/
1-
0.
1H
0M
1C
0O
1R
1M
0P
0H
0R
1P
1S
0S
#24000
0#
0B
#25000
1#
1B
1u
17
1G
1/
0C
1H
#26000
0#
0B
#27000
1#
1B
0u
1t
18
07
1L
0G
0/
1.
0H
1C
1O
0L
0M
1H
1R
0O
0P
1M
0R
1S
1P
0S
#28000
0#
0B
#29000
1#
1B
1u
17
1G
1/
0C
1L
0H
1O
0M
1R
0P
1S
#30000
0#
0B
#31000
1#
1B
0u
1q
0r
0s
0t
08
09
0:
1;
07
0L
0O
0R
1U
0G
0/
1+
0,
0-
0.
1H
1M
1P
0S
1C
0U
0M
0P
1S
1V
0H
0V
#32000
0#
0B
#33000
1#
1B
1u
17
1G
1/
0C
1H
#34000
0#
0B
#35000
1#
1B
0u
1t
18
07
1L
0G
0/
1.
0H
1C
0L
1M
1H
0M
#36000
0#
0B
#37000
1#
1B
1u
17
1G
1/
0C
1L
0H
1M
#38000
0#
0B
#39000
1#
1B
0u
1s
0t
08
19
07
0L
1O
0G
0/
1-
0.
1H
0M
1C
0O
1M
1P
0H
0P
#40000
0#
0B
#41000
1#
1B
1u
17
1G
1/
0C
1H
#42000
0#
0B
#43000
1#
1B
0u
1t
18
07
1L
0G
0/
1.
0H
1C
1O
0L
0M
1H
0O
1P
1M
0P
#44000
0#
0B
#45000
1#
1B
1u
17
1G
1/
0C
1L
0H
1O
0M
1P
#46000
0#
0B
#47000
1#
1B
0u
1r
0s
0t
08
09
1:
07
0L
0O
1R
0G
0/
1,
0-
0.
1H
1M
0P
1C
0R
1U
0M
1P
0S
0H
0U
1S
1V
0V
#48000
0#
0B
#49000
1#
1B
1u
17
1G
1/
0C
1H
#50000
0#
0B
#51000
1#
1B
0u
1t
18
07
1L
0G
0/
1.
0H
1C
0L
1M
1H
0M
#52000
0#
0B
#53000
1#
1B
1u
17
1G
1/
0C
1L
0H
1M
#54000
0#
0B
#55000
1#
1B
0u
1s
0t
08
19
07
0L
1O
0G
0/
1-
0.
1H
0M
1C
0O
1R
1M
0P
0H
0R
1U
1P
0S
0U
1S
1V
0V
#56000
0#
0B
#57000
1#
1B
1u
17
1G
1/
0C
1H
#58000
0#
0B
#59000
1#
1B
0u
1t
18
07
1L
0G
0/
1.
0H
1C
1O
0L
0M
1H
1R
0O
0P
1M
1U
0R
0S
1P
0U
1V
1S
0V
#60000
0#
0B
#61000
1#
1B
1u
17
1G
1/
0C
1L
0H
1O
0M
1R
0P
1U
0S
1V
#62000
0#
0B
#63000
1#
1B
0u
1p
0q
0r
0s
0t
08
09
0:
0;
1<
07
0L
0O
0R
0U
1Y
0G
0/
1*
0+
0,
0-
0.
1H
1M
1P
1S
0V
1C
0Y
0M
0P
0S
1V
1Z
0H
0Z
#64000
0#
0B
#65000
1#
1B
1u
17
1G
1/
0C
1H
#66000
0#
0B
#67000
1#
1B
0u
1t
18
07
1L
0G
0/
1.
0H
1C
0L
1M
1H
0M
#68000
0#
0B
#69000
1#
1B
1u
17
1G
1/
0C
1L
0H
1M
#70000
0#
0B
#71000
1#
1B
0u
1s
0t
08
19
07
0L
1O
0G
0/
1-
0.
1H
0M
1C
0O
1M
1P
0H
0P
#72000
0#
0B
#73000
1#
1B
1u
17
1G
1/
0C
1H
#74000
0#
0B
#75000
1#
1B
0u
1t
18
07
1L
0G
0/
1.
0H
1C
1O
0L
0M
1H
0O
1P
1M
0P
#76000
0#
0B
#77000
1#
1B
1u
17
1G
1/
0C
1L
0H
1O
0M
1P
#78000
0#
0B
#79000
1#
1B
0u
1r
0s
0t
08
09
1:
07
0L
0O
1R
0G
0/
1,
0-
0.
1H
1M
0P
1C
0R
0M
1P
1S
0H
0S
#80000
0#
0B
#81000
1#
1B
1u
17
1G
1/
0C
1H
#82000
0#
0B
#83000
1#
1B
0u
1t
18
07
1L
0G
0/
1.
0H
1C
0L
1M
1H
0M
#84000
0#
0B
#85000
1#
1B
1u
17
1G
1/
0C
1L
0H
1M
#86000
0#
0B
#87000
1#
1B
0u
1s
0t
08
19
07
0L
1O
0G
0/
1-
0.
1H
0M
1C
0O
1R
1M
0P
0H
0R
1P
1S
0S
#88000
0#
0B
#89000
1#
1B
1u
17
1G
1/
0C
1H
#90000
0#
0B
#91000
1#
1B
0u
1t
18
07
1L
0G
0/
1.
0H
1C
1O
0L
0M
1H
1R
0O
0P
1M
0R
1S
1P
0S
#92000
0#
0B
#93000
1#
1B
1u
17
1G
1/
0C
1L
0H
1O
0M
1R
0P
1S
#94000
0#
0B
#95000
1#
1B
0u
1q
0r
0s
0t
08
09
0:
1;
07
0L
0O
0R
1U
0G
0/
1+
0,
0-
0.
1H
1M
1P
0S
1C
0U
1Y
0M
0P
1S
0V
0H
0Y
1V
1Z
0Z
#96000
0#
0B
#97000
1#
1B
1u
17
1G
1/
0C
1H
#98000
0#
0B
#99000
1#
1B
0u
1t
18
07
1L
0G
0/
1.
0H
1C
0L
1M
1H
0M
#100000
0#
0B
#101000
1#
1B
1u
17
1G
1/
0C
1L
0H
1M
#102000
0#
0B
#103000
1#
1B
0u
1s
0t
08
19
07
0L
1O
0G
0/
1-
0.
1H
0M
1C
0O
1M
1P
0H
0P
#104000
0#
0B
#105000
1#
1B
1u
17
1G
1/
0C
1H
#106000
0#
0B
#107000
1#
1B
0u
1t
18
07
1L
0G
0/
1.
0H
1C
1O
0L
0M
1H
0O
1P
1M
0P
#108000
0#
0B
#109000
1#
1B
1u
17
1G
1/
0C
1L
0H
1O
0M
1P
#110000
0#
0B
#111000
1#
1B
0u
1r
0s
0t
08
09
1:
07
0L
0O
1R
0G
0/
1,
0-
0.
1H
1M
0P
1C
0R
1U
0M
1P
0S
0H
0U
1Y
1S
0V
0Y
1V
1Z
0Z
#112000
0#
0B
#113000
1#
1B
1u
17
1G
1/
0C
1H
#114000
0#
0B
#115000
1#
1B
0u
1t
18
07
1L
0G
0/
1.
0H
1C
0L
1M
1H
0M
#116000
0#
0B
#117000
1#
1B
1u
17
1G
1/
0C
1L
0H
1M
#118000
0#
0B
#119000
1#
1B
0u
1s
0t
08
19
07
0L
1O
0G
0/
1-
0.
1H
0M
1C
0O
1R
1M
0P
0H
0R
1U
1P
0S
0U
1Y
1S
0V
0Y
1V
1Z
0Z
#120000
0#
0B
#121000
1#
1B
1u
17
1G
1/
0C
1H
#122000
0#
0B
#123000
1#
1B
0u
1t
18
07
1L
0G
0/
1.
0H
1C
1O
0L
0M
1H
1R
0O
0P
1M
1U
0R
0S
1P
1Y
0U
0V
1S
0Y
1Z
1V
0Z
#124000
0#
0B
#125000
1#
1B
1u
17
1X
1G
1/
0C
1L
0H
1O
0M
1R
0P
1U
0S
1Y
0V
1Z
#126000
0#
0B
#127000
1#
1B
0u
1o
0p
0q
0r
0s
0t
08
09
0:
0;
0<
1=
07
1h
0X
0L
0O
0R
0U
0Y
0i
1\
0G
0/
1)
0*
0+
0,
0-
0.
1H
1M
1P
1S
1V
0Z
1C
0\
0M
0P
0S
0V
1Z
1]
0H
0]
#128000
0#
0B
#129000
1#
1B
1u
17
0h
1G
1/
0C
1H
#130000
0#
0B
#131000
1#
1B
0u
1t
18
07
1L
0G
0/
1.
0H
1C
0L
1M
1H
0M
#132000
0#
0B
#133000
1#
1B
1u
17
1G
1/
0C
1L
0H
1M
#134000
0#
0B
#135000
1#
1B
0u
1s
0t
08
19
07
0L
1O
0G
0/
1-
0.
1H
0M
1C
0O
1M
1P
0H
0P
#136000
0#
0B
#137000
1#
1B
1u
17
1G
1/
0C
1H
#138000
0#
0B
#139000
1#
1B
0u
1t
18
07
1L
0G
0/
1.
0H
1C
1O
0L
0M
1H
0O
1P
1M
0P
#140000
0#
0B
#141000
1#
1B
1u
17
1G
1/
0C
1L
0H
1O
0M
1P
#142000
0#
0B
#143000
1#
1B
0u
1r
0s
0t
08
09
1:
07
0L
0O
1R
0G
0/
1,
0-
0.
1H
1M
0P
1C
0R
0M
1P
1S
0H
0S
#144000
0#
0B
#145000
1#
1B
1u
17
1G
1/
0C
1H
#146000
0#
0B
#147000
1#
1B
0u
1t
18
07
1L
0G
0/
1.
0H
1C
0L
1M
1H
0M
#148000
0#
0B
#149000
1#
1B
1u
17
1G
1/
0C
1L
0H
1M
#150000
0#
0B
#151000
1#
1B
0u
1s
0t
08
19
07
0L
1O
0G
0/
1-
0.
1H
0M
1C
0O
1R
1M
0P
0H
0R
1P
1S
0S
#152000
0#
0B
#153000
1#
1B
1u
17
1G
1/
0C
1H
#154000
0#
0B
#155000
1#
1B
0u
1t
18
07
1L
0G
0/
1.
0H
1C
1O
0L
0M
1H
1R
0O
0P
1M
0R
1S
1P
0S
#156000
0#
0B
#157000
1#
1B
1u
17
1G
1/
0C
1L
0H
1O
0M
1R
0P
1S
#158000
0#
0B
#159000
1#
1B
0u
1q
0r
0s
0t
08
09
0:
1;
07
0L
0O
0R
1U
0G
0/
1+
0,
0-
0.
1H
1M
1P
0S
1C
0U
0M
0P
1S
1V
0H
0V
#160000
0#
0B
#161000
1#
1B
1u
17
1G
1/
0C
1H
#162000
0#
0B
#163000
1#
1B
0u
1t
18
07
1L
0G
0/
1.
0H
1C
0L
1M
1H
0M
#164000
0#
0B
#165000
1#
1B
1u
17
1G
1/
0C
1L
0H
1M
#166000
0#
0B
#167000
1#
1B
0u
1s
0t
08
19
07
0L
1O
0G
0/
1-
0.
1H
0M
1C
0O
1M
1P
0H
0P
#168000
0#
0B
#169000
1#
1B
1u
17
1G
1/
0C
1H
#170000
0#
0B
#171000
1#
1B
0u
1t
18
07
1L
0G
0/
1.
0H
1C
1O
0L
0M
1H
0O
1P
1M
0P
#172000
0#
0B
#173000
1#
1B
1u
17
1G
1/
0C
1L
0H
1O
0M
1P
#174000
0#
0B
#175000
1#
1B
0u
1r
0s
0t
08
09
1:
07
0L
0O
1R
0G
0/
1,
0-
0.
1H
1M
0P
1C
0R
1U
0M
1P
0S
0H
0U
1S
1V
0V
#176000
0#
0B
#177000
1#
1B
1u
17
1G
1/
0C
1H
#178000
0#
0B
#179000
1#
1B
0u
1t
18
07
1L
0G
0/
1.
0H
1C
0L
1M
1H
0M
#180000
0#
0B
#181000
1#
1B
1u
17
1G
1/
0C
1L
0H
1M
#182000
0#
0B
#183000
1#
1B
0u
1s
0t
08
19
07
0L
1O
0G
0/
1-
0.
1H
0M
1C
0O
1R
1M
0P
0H
0R
1U
1P
0S
0U
1S
1V
0V
#184000
0#
0B
#185000
1#
1B
1u
17
1G
1/
0C
1H
#186000
0#
0B
#187000
1#
1B
0u
1t
18
07
1L
0G
0/
1.
0H
1C
1O
0L
0M
1H
1R
0O
0P
1M
1U
0R
0S
1P
0U
1V
1S
0V
#188000
0#
0B
#189000
1#
1B
1u
17
1G
1/
0C
1L
0H
1O
0M
1R
0P
1U
0S
1V
#190000
0#
0B
#191000
1#
1B
0u
1p
0q
0r
0s
0t
08
09
0:
0;
1<
07
0L
0O
0R
0U
1Y
0G
0/
1*
0+
0,
0-
0.
1H
1M
1P
1S
0V
1C
0Y
1\
0M
0P
0S
1V
0Z
0H
0\
1Z
1]
0]
#192000
0#
0B
#193000
1#
1B
1u
17
1G
1/
0C
1H
#194000
0#
0B
#195000
1#
1B
0u
1t
18
07
1L
0G
0/
1.
0H
1C
0L
1M
1H
0M
#196000
0#
0B
#197000
1#
1B
1u
17
1G
1/
0C
1L
0H
1M
#198000
0#
0B
#199000
1#
1B
0u
1s
0t
08
19
07
0L
1O
0G
0/
1-
0.
1H
0M
1C
0O
1M
1P
0H
0P
#200000
0#
0B
#201000
1#
1B
1u
17
1G
1/
0C
1H
#202000
0#
0B
#203000
1#
1B
0u
1t
18
07
1L
0G
0/
1.
0H
1C
1O
0L
0M
1H
0O
1P
1M
0P
#204000
0#
0B
#205000
1#
1B
1u
17
1G
1/
0C
1L
0H
1O
0M
1P
#206000
0#
0B
#207000
1#
1B
0u
1r
0s
0t
08
09
1:
07
0L
0O
1R
0G
0/
1,
0-
0.
1H
1M
0P
1C
0R
0M
1P
1S
0H
0S
#208000
0#
0B
#209000
1#
1B
1u
17
1G
1/
0C
1H
#210000
0#
0B
#211000
1#
1B
0u
1t
18
07
1L
0G
0/
1.
0H
1C
0L
1M
1H
0M
#212000
0#
0B
#213000
1#
1B
1u
17
1G
1/
0C
1L
0H
1M
#214000
0#
0B
#215000
1#
1B
0u
1s
0t
08
19
07
0L
1O
0G
0/
1-
0.
1H
0M
1C
0O
1R
1M
0P
0H
0R
1P
1S
0S
#216000
0#
0B
#217000
1#
1B
1u
17
1G
1/
0C
1H
#218000
0#
0B
#219000
1#
1B
0u
1t
18
07
1L
0G
0/
1.
0H
1C
1O
0L
0M
1H
1R
0O
0P
1M
0R
1S
1P
0S
#220000
0#
0B
#221000
1#
1B
1u
17
1G
1/
0C
1L
0H
1O
0M
1R
0P
1S
#222000
0#
0B
#223000
1#
1B
0u
1q
0r
0s
0t
08
09
0:
1;
07
0L
0O
0R
1U
0G
0/
1+
0,
0-
0.
1H
1M
1P
0S
1C
0U
1Y
0M
0P
1S
0V
0H
0Y
1\
1V
0Z
0\
1Z
1]
0]
#224000
0#
0B
#225000
1#
1B
1u
17
1G
1/
0C
1H
#226000
0#
0B
#227000
1#
1B
0u
1t
18
07
1L
0G
0/
1.
0H
1C
0L
1M
1H
0M
#228000
0#
0B
#229000
1#
1B
1u
17
1G
1/
0C
1L
0H
1M
#230000
0#
0B
#231000
1#
1B
0u
1s
0t
08
19
07
0L
1O
0G
0/
1-
0.
1H
0M
1C
0O
1M
1P
0H
0P
#232000
0#
0B
#233000
1#
1B
1u
17
1G
1/
0C
1H
#234000
0#
0B
#235000
1#
1B
0u
1t
18
07
1L
0G
0/
1.
0H
1C
1O
0L
0M
1H
0O
1P
1M
0P
#236000
0#
0B
#237000
1#
1B
1u
17
1G
1/
0C
1L
0H
1O
0M
1P
#238000
0#
0B
#239000
1#
1B
0u
1r
0s
0t
08
09
1:
07
0L
0O
1R
0G
0/
1,
0-
0.
1H
1M
0P
1C
0R
1U
0M
1P
0S
0H
0U
1Y
1S
0V
0Y
1\
1V
0Z
0\
1Z
1]
0]
#240000
0#
0B
#241000
1#
1B
1u
17
1G
1/
0C
1H
#242000
0#
0B
#243000
1#
1B
0u
1t
18
07
1L
0G
0/
1.
0H
1C
0L
1M
1H
0M
#244000
0#
0B
#245000
1#
1B
1u
17
1G
1/
0C
1L
0H
1M
#246000
0#
0B
#247000
1#
1B
0u
1s
0t
08
19
07
0L
1O
0G
0/
1-
0.
1H
0M
1C
0O
1R
1M
0P
0H
0R
1U
1P
0S
0U
1Y
1S
0V
0Y
1\
1V
0Z
0\
1Z
1]
0]
#248000
0#
0B
#249000
1#
1B
1u
17
1G
1/
0C
1H
#250000
0#
0B
#251000
1#
1B
0u
1t
18
07
1L
0G
0/
1.
0H
1C
1O
0L
0M
1H
1R
0O
0P
1M
1U
0R
0S
1P
1Y
0U
0V
1S
1\
0Y
0Z
1V
0\
1]
1Z
0]
#252000
0#
0B
#253000
1#
1B
1u
17
1X
1G
1/
0C
1L
0H
1O
0M
1R
0P
1U
0S
1Y
0V
1\
0Z
1]
#254000
0#
0B
#255000
1#
1B
0u
1n
0o
0p
0q
0r
0s
0t
08
09
0:
0;
0<
0=
1>
07
1h
0X
0L
0O
0R
0U
0Y
0\
1_
0G
0/
1(
0)
0*
0+
0,
0-
0.
1H
1M
1P
1S
1V
1Z
0]
1C
0_
0M
0P
0S
0V
0Z
1]
1`
0H
0`
#256000
0#
0B
#257000
1#
1B
1u
17
0h
1G
1/
0C
1H
#258000
0#
0B
#259000
1#
1B
0u
1t
18
07
1L
0G
0/
1.
0H
1C
0L
1M
1H
0M
#260000
0#
0B
#261000
1#
1B
1u
17
1G
1/
0C
1L
0H
1M
#262000
0#
0B
#263000
1#
1B
0u
1s
0t
08
19
07
0L
1O
0G
0/
1-
0.
1H
0M
1C
0O
1M
1P
0H
0P
#264000
0#
0B
#265000
1#
1B
1u
17
1G
1/
0C
1H
#266000
0#
0B
#267000
1#
1B
0u
1t
18
07
1L
0G
0/
1.
0H
1C
1O
0L
0M
1H
0O
1P
1M
0P
#268000
0#
0B
#269000
1#
1B
1u
17
1G
1/
0C
1L
0H
1O
0M
1P
#270000
0#
0B
#271000
1#
1B
0u
1r
0s
0t
08
09
1:
07
0L
0O
1R
0G
0/
1,
0-
0.
1H
1M
0P
1C
0R
0M
1P
1S
0H
0S
#272000
0#
0B
#273000
1#
1B
1u
17
1G
1/
0C
1H
#274000
0#
0B
#275000
1#
1B
0u
1t
18
07
1L
0G
0/
1.
0H
1C
0L
1M
1H
0M
#276000
0#
0B
#277000
1#
1B
1u
17
1G
1/
0C
1L
0H
1M
#278000
0#
0B
#279000
1#
1B
0u
1s
0t
08
19
07
0L
1O
0G
0/
1-
0.
1H
0M
1C
0O
1R
1M
0P
0H
0R
1P
1S
0S
#280000
0#
0B
#281000
1#
1B
1u
17
1G
1/
0C
1H
#282000
0#
0B
#283000
1#
1B
0u
1t
18
07
1L
0G
0/
1.
0H
1C
1O
0L
0M
1H
1R
0O
0P
1M
0R
1S
1P
0S
#284000
0#
0B
#285000
1#
1B
1u
17
1G
1/
0C
1L
0H
1O
0M
1R
0P
1S
#286000
0#
0B
#287000
1#
1B
0u
1q
0r
0s
0t
08
09
0:
1;
07
0L
0O
0R
1U
0G
0/
1+
0,
0-
0.
1H
1M
1P
0S
1C
0U
0M
0P
1S
1V
0H
0V
#288000
0#
0B
#289000
1#
1B
1u
17
1G
1/
0C
1H
#290000
0#
0B
#291000
1#
1B
0u
1t
18
07
1L
0G
0/
1.
0H
1C
0L
1M
1H
0M
#292000
0#
0B
#293000
1#
1B
1u
17
1G
1/
0C
1L
0H
1M
#294000
0#
0B
#295000
1#
1B
0u
1s
0t
08
19
07
0L
1O
0G
0/
1-
0.
1H
0M
1C
0O
1M
1P
0H
0P
#296000
0#
0B
#297000
1#
1B
1u
17
1G
1/
0C
1H
#298000
0#
0B
#299000
1#
1B
0u
1t
18
07
1L
0G
0/
1.
0H
1C
1O
0L
0M
1H
0O
1P
1M
0P
#300000
0#
0B
#301000
1#
1B
1u
17
1G
1/
0C
1L
0H
1O
0M
1P
#302000
0#
0B
#303000
1#
1B
0u
1r
0s
0t
08
09
1:
07
0L
0O
1R
0G
0/
1,
0-
0.
1H
1M
0P
1C
0R
1U
0M
1P
0S
0H
0U
1S
1V
0V
#304000
0#
0B
#305000
1#
1B
1u
17
1G
1/
0C
1H
#306000
0#
0B
#307000
1#
1B
0u
1t
18
07
1L
0G
0/
1.
0H
1C
0L
1M
1H
0M
#308000
0#
0B
#309000
1#
1B
1u
17
1G
1/
0C
1L
0H
1M
#310000
0#
0B
#311000
1#
1B
0u
1s
0t
08
19
07
0L
1O
0G
0/
1-
0.
1H
0M
1C
0O
1R
1M
0P
0H
0R
1U
1P
0S
0U
1S
1V
0V
#312000
0#
0B
#313000
1#
1B
1u
17
1G
1/
0C
1H
#314000
0#
0B
#315000
1#
1B
0u
1t
18
07
1L
0G
0/
1.
0H
1C
1O
0L
0M
1H
1R
0O
0P
1M
1U
0R
0S
1P
0U
1V
1S
0V
#316000
0#
0B
#317000
1#
1B
1u
17
1G
1/
0C
1L
0H
1O
0M
1R
0P
1U
0S
1V
#318000
0#
0B
#319000
1#
1B
0u
1p
0q
0r
0s
0t
08
09
0:
0;
1<
07
0L
0O
0R
0U
1Y
0G
0/
1*
0+
0,
0-
0.
1H
1M
1P
1S
0V
1C
0Y
0M
0P
0S
1V
1Z
0H
0Z
#320000
0#
0B
#321000
1#
1B
1u
17
1G
1/
0C
1H
#322000
0#
0B
#323000
1#
1B
0u
1t
18
07
1L
0G
0/
1.
0H
1C
0L
1M
1H
0M
#324000
0#
0B
#325000
1#
1B
1u
17
1G
1/
0C
1L
0H
1M
#326000
0#
0B
#327000
1#
1B
0u
1s
0t
08
19
07
0L
1O
0G
0/
1-
0.
1H
0M
1C
0O
1M
1P
0H
0P
#328000
0#
0B
#329000
1#
1B
1u
17
1G
1/
0C
1H
#330000
0#
0B
#331000
1#
1B
0u
1t
18
07
1L
0G
0/
1.
0H
1C
1O
0L
0M
1H
0O
1P
1M
0P
#332000
0#
0B
#333000
1#
1B
1u
17
1G
1/
0C
1L
0H
1O
0M
1P
#334000
0#
0B
#335000
1#
1B
0u
1r
0s
0t
08
09
1:
07
0L
0O
1R
0G
0/
1,
0-
0.
1H
1M
0P
1C
0R
0M
1P
1S
0H
0S
#336000
0#
0B
#337000
1#
1B
1u
17
1G
1/
0C
1H
#338000
0#
0B
#339000
1#
1B
0u
1t
18
07
1L
0G
0/
1.
0H
1C
0L
1M
1H
0M
#340000
0#
0B
#341000
1#
1B
1u
17
1G
1/
0C
1L
0H
1M
#342000
0#
0B
#343000
1#
1B
0u
1s
0t
08
19
07
0L
1O
0G
0/
1-
0.
1H
0M
1C
0O
1R
1M
0P
0H
0R
1P
1S
0S
#344000
0#
0B
#345000
1#
1B
1u
17
1G
1/
0C
1H
#346000
0#
0B
#347000
1#
1B
0u
1t
18
07
1L
0G
0/
1.
0H
1C
1O
0L
0M
1H
1R
0O
0P
1M
0R
1S
1P
0S
#348000
0#
0B
#349000
1#
1B
1u
17
1G
1/
0C
1L
0H
1O
0M
1R
0P
1S
#350000
0#
0B
#351000
1#
1B
0u
1q
0r
0s
0t
08
09
0:
1;
07
0L
0O
0R
1U
0G
0/
1+
0,
0-
0.
1H
1M
1P
0S
1C
0U
1Y
0M
0P
1S
0V
0H
0Y
1V
1Z
0Z
#352000
0#
0B
#353000
1#
1B
1u
17
1G
1/
0C
1H
#354000
0#
0B
#355000
1#
1B
0u
1t
18
07
1L
0G
0/
1.
0H
1C
0L
1M
1H
0M
#356000
0#
0B
#357000
1#
1B
1u
17
1G
1/
0C
1L
0H
1M
#358000
0#
0B
#359000
1#
1B
0u
1s
0t
08
19
07
0L
1O
0G
0/
1-
0.
1H
0M
1C
0O
1M
1P
0H
0P
#360000
0#
0B
#361000
1#
1B
1u
17
1G
1/
0C
1H
#362000
0#
0B
#363000
1#
1B
0u
1t
18
07
1L
0G
0/
1.
0H
1C
1O
0L
0M
1H
0O
1P
1M
0P
#364000
0#
0B
#365000
1#
1B
1u
17
1G
1/
0C
1L
0H
1O
0M
1P
#366000
0#
0B
#367000
1#
1B
0u
1r
0s
0t
08
09
1:
07
0L
0O
1R
0G
0/
1,
0-
0.
1H
1M
0P
1C
0R
1U
0M
1P
0S
0H
0U
1Y
1S
0V
0Y
1V
1Z
0Z
#368000
0#
0B
#369000
1#
1B
1u
17
1G
1/
0C
1H
#370000
0#
0B
#371000
1#
1B
0u
1t
18
07
1L
0G
0/
1.
0H
1C
0L
1M
1H
0M
#372000
0#
0B
#373000
1#
1B
1u
17
1G
1/
0C
1L
0H
1M
#374000
0#
0B
#375000
1#
1B
0u
1s
0t
08
19
07
0L
1O
0G
0/
1-
0.
1H
0M
1C
0O
1R
1M
0P
0H
0R
1U
1P
0S
0U
1Y
1S
0V
0Y
1V
1Z
0Z
#376000
0#
0B
#377000
1#
1B
1u
17
1G
1/
0C
1H
#378000
0#
0B
#379000
1#
1B
0u
1t
18
07
1L
0G
0/
1.
0H
1C
1O
0L
0M
1H
1R
0O
0P
1M
1U
0R
0S
1P
1Y
0U
0V
1S
0Y
1Z
1V
0Z
#380000
0#
0B
#381000
1#
1B
1u
17
1X
1G
1/
0C
1L
0H
1O
0M
1R
0P
1U
0S
1Y
0V
1Z
#382000
0#
0B
#383000
1#
1B
0u
1o
0p
0q
0r
0s
0t
08
09
0:
0;
0<
1=
07
1h
0X
0L
0O
0R
0U
0Y
1\
0G
0/
1)
0*
0+
0,
0-
0.
1H
1M
1P
1S
1V
0Z
1C
0\
1_
0M
0P
0S
0V
1Z
0]
0H
0_
1]
1`
0`
#384000
0#
0B
#385000
1#
1B
1u
17
0h
1G
1/
0C
1H
#386000
0#
0B
#387000
1#
1B
0u
1t
18
07
1L
0G
0/
1.
0H
1C
0L
1M
1H
0M
#388000
0#
0B
#389000
1#
1B
1u
17
1G
1/
0C
1L
0H
1M
#390000
0#
0B
#391000
1#
1B
0u
1s
0t
08
19
07
0L
1O
0G
0/
1-
0.
1H
0M
1C
0O
1M
1P
0H
0P
#392000
0#
0B
#393000
1#
1B
1u
17
1G
1/
0C
1H
#394000
0#
0B
#395000
1#
1B
0u
1t
18
07
1L
0G
0/
1.
0H
1C
1O
0L
0M
1H
0O
1P
1M
0P
#396000
0#
0B
